RMarkdown Project - Fu et al. 2015
…
Finally, it extracts the values from the gene_symbol column of the
resulting data frame. This operation converts the column into a vector
containing the gene symbols of the top 8 genes.

Top 8 Genes in a Vector

mygenes <- c("Csn1s2a", "Csn1s1", "Csn2", "Glycam1", "COX1", "Trf", "Wap", "Eef1a1")

filters for the genes of interest using the filter
function

mygenes_counts <- filter(allinfo, gene_symbol %in% mygenes)
mygenes_counts

## # A tibble: 96 × 8
##    genID              gene_symbol Sample   Count characteristics immunophenotype
##    <chr>              <chr>       <chr>    <dbl> <chr>           <chr>          
##  1 ENSMUSG00000000381 Wap         GSM148… 9.02e1 mammary gland,… luminal cell p…
##  2 ENSMUSG00000000381 Wap         GSM148… 9.56e1 mammary gland,… luminal cell p…
##  3 ENSMUSG00000000381 Wap         GSM148… 4.14e3 mammary gland,… luminal cell p…
##  4 ENSMUSG00000000381 Wap         GSM148… 8.41e3 mammary gland,… luminal cell p…
##  5 ENSMUSG00000000381 Wap         GSM148… 4.92e4 mammary gland,… luminal cell p…
##  6 ENSMUSG00000000381 Wap         GSM148… 4.64e4 mammary gland,… luminal cell p…
##  7 ENSMUSG00000000381 Wap         GSM148… 1.24e0 mammary gland,… basal cell pop…
##  8 ENSMUSG00000000381 Wap         GSM148… 1.70e0 mammary gland,… basal cell pop…
##  9 ENSMUSG00000000381 Wap         GSM148… 1.62e2 mammary gland,… basal cell pop…
## 10 ENSMUSG00000000381 Wap         GSM148… 2.11e2 mammary gland,… basal cell pop…
## # ℹ 86 more rows
## # ℹ 2 more variables: developmental.stage <chr>, Group <chr>
…
